<svg xmlns="http://www.w3.org/2000/svg" width="1029.7" height="644" viewBox="0 0 1029.7 644">
  <g id="Blockchain_Graphic_-_0B5754" data-name="Blockchain Graphic - #0B5754" transform="translate(-385.171 -218.334)">
    <path id="Path_3" data-name="Path 3" d="M621,385.6,587.409,405l-33.594-19.4V346.814l33.594-19.4L621,346.814l-33.594,19.4-33.594-19.4" transform="translate(-14.939 -9.642)" fill="none" stroke="#0b5754" stroke-linecap="round" stroke-linejoin="round" stroke-width="4"/>
    <path id="Path_4" data-name="Path 4" d="M621,512.953l-33.594,19.4-33.594-19.4V474.162l33.594-19.4L621,474.162l-33.594,19.4-33.594-19.4" transform="translate(-14.939 -21.108)" fill="none" stroke="#0b5754" stroke-linecap="round" stroke-linejoin="round" stroke-width="4"/>
    <path id="Path_5" data-name="Path 5" d="M953.352,704.245l-33.594,19.4-33.594-19.4V665.454l33.594-19.4,33.594,19.4-33.594,19.4-33.594-19.4" transform="translate(-44.863 -38.332)" fill="none" stroke="#0b5754" stroke-linecap="round" stroke-linejoin="round" stroke-width="4"/>
    <line id="Line_4" data-name="Line 4" y2="58.186" transform="translate(572.471 278.985)" fill="none" stroke="#0b5754" stroke-linecap="round" stroke-linejoin="round" stroke-width="4"/>
    <path id="Path_6" data-name="Path 6" d="M842.552,385.009l-33.594,19.4-33.594-19.4V346.218l33.594-19.4,33.594,19.4-33.594,19.4-33.594-19.4" transform="translate(-34.887 -9.588)" fill="none" stroke="#0b5754" stroke-linecap="round" stroke-linejoin="round" stroke-width="4"/>
    <line id="Line_5" data-name="Line 5" y2="58.186" transform="translate(774.071 278.444)" fill="none" stroke="#0b5754" stroke-linecap="round" stroke-linejoin="round" stroke-width="4"/>
    <path id="Path_7" data-name="Path 7" d="M948.378,448l-33.594,19.4L881.19,448V409.21l33.594-19.4,33.594,19.4-33.568,19.4-83.891-48.413" transform="translate(-39.889 -14.394)" fill="none" stroke="#0b5754" stroke-linecap="round" stroke-linejoin="round" stroke-width="4"/>
    <line id="Line_6" data-name="Line 6" y2="58.186" transform="translate(874.895 336.63)" fill="none" stroke="#0b5754" stroke-linecap="round" stroke-linejoin="round" stroke-width="4"/>
    <path id="Path_8" data-name="Path 8" d="M842.552,512.9l-33.594,19.4-33.594-19.4V474.106l33.594-19.4,33.594,19.4-33.594,19.4-33.594-19.4" transform="translate(-34.887 -21.103)" fill="none" stroke="#0b5754" stroke-linecap="round" stroke-linejoin="round" stroke-width="4"/>
    <line id="Line_7" data-name="Line 7" y2="58.186" transform="translate(774.071 394.817)" fill="none" stroke="#0b5754" stroke-linecap="round" stroke-linejoin="round" stroke-width="4"/>
    <path id="Path_9" data-name="Path 9" d="M1285.313,385.094l-33.594,19.4-33.594-19.4V346.3l33.594-19.4,33.594,19.4-33.594,19.4-33.594-19.4" transform="translate(-74.753 -9.596)" fill="none" stroke="#0b5754" stroke-linecap="round" stroke-linejoin="round" stroke-width="4"/>
    <line id="Line_8" data-name="Line 8" y2="58.186" transform="translate(1176.966 278.521)" fill="none" stroke="#0b5754" stroke-linecap="round" stroke-linejoin="round" stroke-width="4"/>
    <line id="Line_9" data-name="Line 9" y2="58.186" transform="translate(1176.966 394.893)" fill="none" stroke="#0b5754" stroke-linecap="round" stroke-linejoin="round" stroke-width="4"/>
    <path id="Path_10" data-name="Path 10" d="M948.378,575.889l-33.594,19.4-33.594-19.4V537.1l33.594-19.4,33.594,19.4-33.568,19.4-83.891-48.413" transform="translate(-39.889 -25.908)" fill="none" stroke="#0b5754" stroke-linecap="round" stroke-linejoin="round" stroke-width="4"/>
    <path id="Path_11" data-name="Path 11" d="M1396.037,321.15l-33.594,19.4-33.594-19.4V282.359l33.594-19.4,33.594,19.4-33.594,19.4-33.594-19.4" transform="translate(-84.722 -3.838)" fill="none" stroke="#0b5754" stroke-linecap="round" stroke-linejoin="round" stroke-width="4"/>
    <line id="Line_10" data-name="Line 10" y2="58.186" transform="translate(1277.721 220.334)" fill="none" stroke="#0b5754" stroke-linecap="round" stroke-linejoin="round" stroke-width="4"/>
    <path id="Path_12" data-name="Path 12" d="M1396.037,449.037l-33.594,19.4-33.594-19.4V410.247l33.594-19.4,33.594,19.4-33.594,19.4-33.594-19.4" transform="translate(-84.722 -15.353)" fill="none" stroke="#0b5754" stroke-linecap="round" stroke-linejoin="round" stroke-width="4"/>
    <line id="Line_11" data-name="Line 11" y2="58.186" transform="translate(1277.721 336.707)" fill="none" stroke="#0b5754" stroke-linecap="round" stroke-linejoin="round" stroke-width="4"/>
    <path id="Path_13" data-name="Path 13" d="M1501.863,512.029l-33.594,19.4-33.594-19.4V473.238l33.594-19.4,33.594,19.4-33.568,19.4L1384.4,444.221" transform="translate(-89.724 -20.159)" fill="none" stroke="#0b5754" stroke-linecap="round" stroke-linejoin="round" stroke-width="4"/>
    <path id="Path_14" data-name="Path 14" d="M1059.1,639.834l-33.594,19.4-33.594-19.4V601.043l33.594-19.4,33.594,19.4-33.567,19.4-83.891-48.413" transform="translate(-49.858 -31.666)" fill="none" stroke="#0b5754" stroke-linecap="round" stroke-linejoin="round" stroke-width="4"/>
    <path id="Path_15" data-name="Path 15" d="M1175.062,576.84l-33.594,19.4-33.594-19.4V538.049l33.594-19.4,33.594,19.4-33.594,19.4-33.594-19.4" transform="translate(-64.826 -26.86)" fill="none" stroke="#0b5754" stroke-linecap="round" stroke-linejoin="round" stroke-width="4"/>
    <line id="Line_12" data-name="Line 12" y2="58.186" transform="translate(1076.642 453.002)" fill="none" stroke="#0b5754" stroke-linecap="round" stroke-linejoin="round" stroke-width="4"/>
    <path id="Path_16" data-name="Path 16" d="M1280.887,639.832l-33.594,19.4-33.594-19.4V601.041l33.594-19.4,33.594,19.4-33.568,19.4-83.891-48.413" transform="translate(-69.828 -31.666)" fill="none" stroke="#0b5754" stroke-linecap="round" stroke-linejoin="round" stroke-width="4"/>
    <path id="Path_17" data-name="Path 17" d="M1391.612,703.777l-33.594,19.4-33.594-19.4V664.986l33.594-19.4,33.594,19.4-33.568,19.4-83.891-48.413" transform="translate(-79.797 -37.424)" fill="none" stroke="#0b5754" stroke-linecap="round" stroke-linejoin="round" stroke-width="4"/>
    <path id="Path_18" data-name="Path 18" d="M1285.313,768.7l-33.594,19.4-33.594-19.4V729.909l33.594-19.4,33.594,19.4-33.594,19.4-33.594-19.4" transform="translate(-74.753 -44.135)" fill="none" stroke="#0b5754" stroke-linecap="round" stroke-linejoin="round" stroke-width="4"/>
    <line id="Line_13" data-name="Line 13" y2="58.186" transform="translate(1176.966 627.587)" fill="none" stroke="#0b5754" stroke-linecap="round" stroke-linejoin="round" stroke-width="4"/>
    <path id="Path_19" data-name="Path 19" d="M1391.138,831.692l-33.594,19.4-33.594-19.4V792.9l33.594-19.4,33.594,19.4-33.568,19.4-83.891-48.413" transform="translate(-79.755 -48.941)" fill="none" stroke="#0b5754" stroke-linecap="round" stroke-linejoin="round" stroke-width="4"/>
    <path id="Path_20" data-name="Path 20" d="M1501.863,895.637l-33.594,19.4-33.594-19.4V856.846l33.594-19.4,33.594,19.4-33.568,19.4L1384.4,827.829" transform="translate(-89.724 -54.698)" fill="none" stroke="#0b5754" stroke-linecap="round" stroke-linejoin="round" stroke-width="4"/>
    <path id="Path_21" data-name="Path 21" d="M510.241,704.244l-33.594,19.4-33.594-19.4V665.453l33.594-19.4,33.594,19.4-33.594,19.4-33.594-19.4" transform="translate(-4.966 -38.332)" fill="none" stroke="#0b5754" stroke-linecap="round" stroke-linejoin="round" stroke-width="4"/>
    <path id="Path_22" data-name="Path 22" d="M616.067,767.236l-33.594,19.4-33.594-19.4V728.445l33.594-19.4,33.594,19.4-33.568,19.4-83.891-48.413" transform="translate(-9.968 -43.137)" fill="none" stroke="#0b5754" stroke-linecap="round" stroke-linejoin="round" stroke-width="4"/>
    <path id="Path_23" data-name="Path 23" d="M726.791,831.181l-33.594,19.4-33.594-19.4V792.391L693.2,773l33.594,19.4-33.568,19.4-83.891-48.413" transform="translate(-19.937 -48.895)" fill="none" stroke="#0b5754" stroke-linecap="round" stroke-linejoin="round" stroke-width="4"/>
    <path id="Path_24" data-name="Path 24" d="M953.377,321.065l-33.594,19.4-33.594-19.4V282.274l33.594-19.4,33.594,19.4-33.594,19.4-33.594-19.4" transform="translate(-44.865 -3.831)" fill="none" stroke="#0b5754" stroke-linecap="round" stroke-linejoin="round" stroke-width="4"/>
    <path id="Path_25" data-name="Path 25" d="M1059.2,384.056l-33.594,19.4-33.594-19.4V345.266l33.594-19.4,33.594,19.4-33.568,19.4-83.891-48.413" transform="translate(-49.867 -8.636)" fill="none" stroke="#0b5754" stroke-linecap="round" stroke-linejoin="round" stroke-width="4"/>
    <path id="Path_26" data-name="Path 26" d="M1169.927,448l-33.594,19.4L1102.74,448V409.211l33.594-19.4,33.594,19.4-33.567,19.4-83.891-48.413" transform="translate(-59.837 -14.394)" fill="none" stroke="#0b5754" stroke-linecap="round" stroke-linejoin="round" stroke-width="4"/>
    <path id="Path_27" data-name="Path 27" d="M1280.732,511.976l-33.594,19.4-33.594-19.4V473.185l33.594-19.4,33.594,19.4-33.567,19.4-83.891-48.413" transform="translate(-69.814 -20.154)" fill="none" stroke="#0b5754" stroke-linecap="round" stroke-linejoin="round" stroke-width="4"/>
    <line id="Line_14" data-name="Line 14" y2="58.186" transform="translate(874.895 453.003)" fill="none" stroke="#0b5754" stroke-linecap="round" stroke-linejoin="round" stroke-width="4"/>
    <path id="Path_28" data-name="Path 28" d="M837.578,639.833l-33.594,19.4-33.594-19.4V601.042l33.594-19.4,33.594,19.4-33.567,19.4-83.891-48.413" transform="translate(-29.912 -31.666)" fill="none" stroke="#0b5754" stroke-linecap="round" stroke-linejoin="round" stroke-width="4"/>
    <path id="Path_29" data-name="Path 29" d="M505.362,575.889l-33.594,19.4-33.594-19.4V537.1l33.594-19.4,33.594,19.4-33.567,19.4L387.9,508.081" transform="translate(0 -25.908)" fill="none" stroke="#0b5754" stroke-linecap="round" stroke-linejoin="round" stroke-width="4"/>
    <path id="Path_30" data-name="Path 30" d="M726.825,575.936l-33.594,19.4-33.594-19.4V537.145l33.594-19.4,33.594,19.4-33.567,19.4-83.891-48.413" transform="translate(-19.94 -25.913)" fill="none" stroke="#0b5754" stroke-linecap="round" stroke-linejoin="round" stroke-width="4"/>
    <line id="Line_15" data-name="Line 15" y2="58.186" transform="translate(774.071 511.189)" fill="none" stroke="#0b5754" stroke-linecap="round" stroke-linejoin="round" stroke-width="4"/>
    <path id="Path_31" data-name="Path 31" d="M1506.837,640.813l-33.594,19.4-33.594-19.4V602.022l33.594-19.4,33.594,19.4-33.594,19.4-33.594-19.4" transform="translate(-94.698 -32.621)" fill="none" stroke="#0b5754" stroke-linecap="round" stroke-linejoin="round" stroke-width="4"/>
    <path id="Path_32" data-name="Path 32" d="M1506.837,768.7l-33.594,19.4-33.594-19.4V729.91l33.594-19.4,33.594,19.4-33.594,19.4-33.594-19.4" transform="translate(-94.698 -44.135)" fill="none" stroke="#0b5754" stroke-linecap="round" stroke-linejoin="round" stroke-width="4"/>
    <line id="Line_16" data-name="Line 16" y2="58.186" transform="translate(1378.545 627.588)" fill="none" stroke="#0b5754" stroke-linecap="round" stroke-linejoin="round" stroke-width="4"/>
    <line id="Line_17" data-name="Line 17" y2="58.186" transform="translate(1378.545 743.961)" fill="none" stroke="#0b5754" stroke-linecap="round" stroke-linejoin="round" stroke-width="4"/>
    <path id="Path_33" data-name="Path 33" d="M1064.139,768.7l-33.594,19.4-33.594-19.4V729.91l33.594-19.4,33.594,19.4-33.594,19.4-33.594-19.4" transform="translate(-54.838 -44.135)" fill="none" stroke="#0b5754" stroke-linecap="round" stroke-linejoin="round" stroke-width="4"/>
    <line id="Line_18" data-name="Line 18" y2="58.186" transform="translate(975.707 743.961)" fill="none" stroke="#0b5754" stroke-linecap="round" stroke-linejoin="round" stroke-width="4"/>
    <path id="Path_34" data-name="Path 34" d="M621,640.3l-33.594,19.4-33.594-19.4V601.51l33.594-19.4L621,601.51l-33.594,19.4-33.594-19.4" transform="translate(-14.939 -32.574)" fill="none" stroke="#0b5754" stroke-linecap="round" stroke-linejoin="round" stroke-width="4"/>
    <line id="Line_19" data-name="Line 19" y2="58.186" transform="translate(572.471 627.122)" fill="none" stroke="#0b5754" stroke-linecap="round" stroke-linejoin="round" stroke-width="4"/>
  </g>
</svg>
